<?xml version="1.0" encoding="UTF-8"?>
<svg width="128pt" height="128pt" version="1.1" viewBox="0 0 128 128" xmlns="http://www.w3.org/2000/svg">
 <g fill="#fff">
  <path d="m44.801 112h-12.801c-4.2422 0-8.3125-1.6875-11.312-4.6875s-4.6875-7.0703-4.6875-11.312v-12.801c0-1.7656 1.4336-3.1992 3.1992-3.1992 0.84766 0 1.6641 0.33594 2.2617 0.9375 0.60156 0.60156 0.9375 1.4141 0.9375 2.2617v12.801c0 5.3008 4.3008 9.6016 9.6016 9.6016h12.801c1.7656 0 3.1992 1.4297 3.1992 3.1992 0 1.7656-1.4336 3.1992-3.1992 3.1992z"/>
  <path d="m83.199 16h12.801c4.2422 0 8.3125 1.6875 11.312 4.6875s4.6875 7.0703 4.6875 11.312v12.801c0 1.7656-1.4336 3.1992-3.1992 3.1992-0.84766 0-1.6641-0.33594-2.2617-0.9375-0.60156-0.60156-0.9375-1.4141-0.9375-2.2617v-12.801c0-5.3008-4.3008-9.6016-9.6016-9.6016h-12.801c-1.7656 0-3.1992-1.4297-3.1992-3.1992 0-1.7656 1.4336-3.1992 3.1992-3.1992z"/>
  <path d="m112 83.199v12.801c0 4.2422-1.6875 8.3125-4.6875 11.312s-7.0703 4.6875-11.312 4.6875h-12.801c-1.7656 0-3.1992-1.4336-3.1992-3.1992 0-0.84766 0.33594-1.6641 0.9375-2.2617 0.60156-0.60156 1.4141-0.9375 2.2617-0.9375h12.801c5.3008 0 9.6016-4.3008 9.6016-9.6016v-12.801c0-1.7656 1.4297-3.1992 3.1992-3.1992 1.7656 0 3.1992 1.4336 3.1992 3.1992z"/>
  <path d="m16 44.801v-12.801c0-4.2422 1.6875-8.3125 4.6875-11.312s7.0703-4.6875 11.312-4.6875h12.801c1.7656 0 3.1992 1.4336 3.1992 3.1992 0 0.84766-0.33594 1.6641-0.9375 2.2617-0.60156 0.60156-1.4141 0.9375-2.2617 0.9375h-12.801c-5.3008 0-9.6016 4.3008-9.6016 9.6016v12.801c0 1.7656-1.4297 3.1992-3.1992 3.1992-1.7656 0-3.1992-1.4336-3.1992-3.1992z"/>
 </g>
</svg>
